Dømi við bildata
…
# EE1: Nyregistrerede personbiler efter energieffektivitet, ejerforhold og drivmiddel
# https://www.statistikbanken.dk/ee1

# https://www.dst.dk/da/Statistik/nyheder-analyser-publ/nyt/NytHtml?cid=34728

# Les data inn
bensinbilar <- read_csv("data/bensinbilar.csv",
                        show_col_types = FALSE)

# Vís innlisin data
bensinbilar

## # A tibble: 288 × 2
##    Mdr     km_per_l
##    <chr>      <dbl>
##  1 1997M07     12.9
##  2 1997M08     13  
##  3 1997M09     13  
##  4 1997M10     13.1
##  5 1997M11     13  
##  6 1997M12     12.7
##  7 1998M01     13.3
##  8 1998M02     13.2
##  9 1998M03     13  
## 10 1998M04     13  
## # … with 278 more rows

# Broyt talvu
bensinbilar <- mutate(bensinbilar,
                      #Year = substr(Mdr, 1, 4),
                      Year = str_sub(Mdr, 1, 4),
                      Slag = "Bensin") 
# Vís broytta talvu
bensinbilar

## # A tibble: 288 × 4
##    Mdr     km_per_l Year  Slag  
##    <chr>      <dbl> <chr> <chr> 
##  1 1997M07     12.9 1997  Bensin
##  2 1997M08     13   1997  Bensin
##  3 1997M09     13   1997  Bensin
##  4 1997M10     13.1 1997  Bensin
##  5 1997M11     13   1997  Bensin
##  6 1997M12     12.7 1997  Bensin
##  7 1998M01     13.3 1998  Bensin
##  8 1998M02     13.2 1998  Bensin
##  9 1998M03     13   1998  Bensin
## 10 1998M04     13   1998  Bensin
## # … with 278 more rows
…
# Les data inn
dieselbilar <- read_csv("data/dieselbilar.csv",
                        show_col_types = FALSE)

# Vís innlisin data
dieselbilar

## # A tibble: 288 × 2
##    Mdr     km_per_l
##    <chr>      <dbl>
##  1 1997M07     16.7
##  2 1997M08     16.1
##  3 1997M09     16.6
##  4 1997M10     16.8
##  5 1997M11     16.5
##  6 1997M12     16.7
##  7 1998M01     16.9
##  8 1998M02     16.8
##  9 1998M03     17.1
## 10 1998M04     17.4
## # … with 278 more rows

# Broyt talvu
dieselbilar <- mutate(dieselbilar,
                      #Year = substr(Mdr, 1, 4),
                      Year = str_sub(Mdr, 1, 4),
                      Slag = "Diesel") 
# Vís broytta talvu
dieselbilar

## # A tibble: 288 × 4
##    Mdr     km_per_l Year  Slag  
##    <chr>      <dbl> <chr> <chr> 
##  1 1997M07     16.7 1997  Diesel
##  2 1997M08     16.1 1997  Diesel
##  3 1997M09     16.6 1997  Diesel
##  4 1997M10     16.8 1997  Diesel
##  5 1997M11     16.5 1997  Diesel
##  6 1997M12     16.7 1997  Diesel
##  7 1998M01     16.9 1998  Diesel
##  8 1998M02     16.8 1998  Diesel
##  9 1998M03     17.1 1998  Diesel
## 10 1998M04     17.4 1998  Diesel
## # … with 278 more rows
…
# Finn median
bilar_median <- bilar %>% 
  group_by(Year, Slag) %>% 
  summarise(km_per_l_median = median(km_per_l))

# Les median-talvu út
bilar_median

## # A tibble: 50 × 3
## # Groups:   Year [25]
##    Year  Slag   km_per_l_median
##    <chr> <chr>            <dbl>
##  1 1997  Bensin            13  
##  2 1997  Diesel            16.6
##  3 1998  Bensin            13.2
##  4 1998  Diesel            17.4
##  5 1999  Bensin            13.6
##  6 1999  Diesel            18.1
##  7 2000  Bensin            13.7
##  8 2000  Diesel            19.3
##  9 2001  Bensin            13.8
## 10 2001  Diesel            19.6
## # … with 40 more rows
…
